{
  "name": "Activity",
  "base": "PersistedModel",
  "idInjection": true,
  "options": {
    "validateUpsert": true
  },
  "properties": {
    "activityTitle": {
      "type": "string",
      "required": true
    },
    "activityDescription": {
      "type": "string",
      "required": false
    },
    "leadPerson": {
      "type": "string",
      "required": true
    },
    "startDate": {
      "type": "string",
      "required": true
    },
    "endDate": {
      "type": "string",
      "required": true
    },
    "visible": {
      "type": "boolean",
      "default": true
    },
    "requiresAttachment": {
      "type": "boolean",
      "required": true,
      "default": false
    },
    "owner": {
      "type": "string",
      "required": true
    },
    "order": {
      "type": "number",
      "required": true
    },
      "yearId": {
          "type": "string",
          "required": true
      }
  },
  "validations": [],
  "relations": {
    "milestone": {
      "type": "belongsTo",
      "model": "Milestone",
      "foreignKey": ""
    },
    "activityStatusUpdates": {
      "type": "hasMany",
      "model": "ActivityStatusUpdate",
      "foreignKey": ""
    },
    "year": {
      "type": "belongsTo",
      "model": "year",
      "foreignKey": ""
    }
  },
  "acls": [],
  "methods": {}
}
