{
  "name": "region",
  "base": "PersistedModel",
  "idInjection": true,
  "options": {
    "validateUpsert": true
  },
  "properties": {
    "name": {
      "type": "string",
      "required": true
    }
  },
  "validations": [],
  "relations": {
    "zone": {
      "type": "hasMany",
      "model": "zone",
      "foreignKey": ""
    },
    "tracerLocations": {
      "type": "hasMany",
      "model": "tracerLocations",
      "foreignKey": ""
    },
    "students": {
      "type": "hasMany",
      "model": "student",
      "foreignKey": ""
    }
  },
  "acls": [],
  "methods": {}
}
