{
  "initial:before": {
    "loopback#favicon": {}
  },
  "initial": {
    "compression": {},
    "cors": {
      "params": {
        "origin": true,
        "credentials": true,
        "maxAge": 86400
      }
    },
    "helmet#xssFilter": {},
    "helmet#frameguard": {
      "params": {
        "action": "deny"
      }
    },
    "helmet#hsts": {
      "params": {
        "maxAge": 0,
        "includeSubdomains": true
      }
    },
    "helmet#hidePoweredBy": {},
    "helmet#ieNoOpen": {},
    "helmet#noSniff": {},
    "helmet#noCache": {
      "enabled": false
    }
  },
  "session": {},
  "auth": {},
  "parse": {},
  "routes": {
   "loopback#static": {
      "params": "$!../client",
      "paths": [
        "/login",
        "/dashboard",
        "/universities",
        "/university/add/0",
        "/university/deleted/0",
        "/users",
        "/user/add/0",
        "/user/inactive/0",
        "/strategies",
        "/strategy/add/0",
        "/milestone/add/0",
        "/activity/add/0",
        "/location",
        "/generation",
	"/narrative",
	"/narratives",
	"/rejected-attachments",
	"/moeStatusUpdate",
	"/moeStatusUpdateCompiled",
	"/statusUpdate",
	"/uniCompiled",
	"/approve",
	"/logout"
      ]
    },
    "loopback#rest": {
      "paths": [
        "${restApiRoot}"
      ]
    }
  },
  "files": {
    "loopback#static": {
      "params": "$!../client"
    }
  },
  "final": {
    "loopback#urlNotFound": {}
  },
  "final:after": {
    "strong-error-handler": {}
  }
}
